…
Removing redundant features `BGN_DATE` and `BGN_TIME`, since both the variables have been coerced and combined.


```r
nws <- select(nws, STATE__, dates, TIME_ZONE, COUNTY:REFNUM)
nws
```

```
## # A tibble: 902,297 x 36
##    STATE__ dates               TIME_ZONE COUNTY COUNTYNAME STATE EVTYPE 
##      <dbl> <dttm>              <fct>      <dbl> <fct>      <fct> <fct>  
##  1       1 1950-04-18 01:30:00 CST           97 MOBILE     AL    TORNADO
##  2       1 1950-04-18 01:45:00 CST            3 BALDWIN    AL    TORNADO
##  3       1 1951-02-20 16:00:00 CST           57 FAYETTE    AL    TORNADO
##  4       1 1951-06-08 09:00:00 CST           89 MADISON    AL    TORNADO
##  5       1 1951-11-15 15:00:00 CST           43 CULLMAN    AL    TORNADO
##  6       1 1951-11-15 20:00:00 CST           77 LAUDERDALE AL    TORNADO
##  7       1 1951-11-16 01:00:00 CST            9 BLOUNT     AL    TORNADO
##  8       1 1952-01-22 09:00:00 CST          123 TALLAPOOSA AL    TORNADO
##  9       1 1952-02-13 20:00:00 CST          125 TUSCALOOSA AL    TORNADO
## 10       1 1952-02-13 20:00:00 CST           57 FAYETTE    AL    TORNADO
## # ... with 902,287 more rows, and 29 more variables: BGN_RANGE <dbl>,
## #   BGN_AZI <fct>, BGN_LOCATI <fct>, END_DATE <fct>, END_TIME <fct>,
## #   COUNTY_END <dbl>, COUNTYENDN <lgl>, END_RANGE <dbl>, END_AZI <fct>,
## #   END_LOCATI <fct>, LENGTH <dbl>, WIDTH <dbl>, F <int>, MAG <dbl>,
## #   FATALITIES <dbl>, INJURIES <dbl>, PROPDMG <dbl>, PROPDMGEXP <fct>,
## #   CROPDMG <dbl>, CROPDMGEXP <fct>, WFO <fct>, STATEOFFIC <fct>,
## #   ZONENAMES <fct>, LATITUDE <dbl>, LONGITUDE <dbl>, LATITUDE_E <dbl>,
## #   LONGITUDE_ <dbl>, REMARKS <fct>, REFNUM <dbl>
```
…
Now, by looking at the variable `EVTYPE`, the most occuring natural disaster can be found.

```r
occurances <- tbl_df(data.frame(table(nws$EVTYPE)))
arrange(occurances, desc(Freq))
```

```
## # A tibble: 985 x 2
##    Var1                 Freq
##    <fct>               <int>
##  1 HAIL               288661
##  2 TSTM WIND          219940
##  3 THUNDERSTORM WIND   82563
##  4 TORNADO             60652
##  5 FLASH FLOOD         54277
##  6 FLOOD               25326
##  7 THUNDERSTORM WINDS  20843
##  8 HIGH WIND           20212
##  9 LIGHTNING           15754
## 10 HEAVY SNOW          15708
## # ... with 975 more rows
```
…
### Analyzing events harmful to population health

Now, the variables `FATALITIES` and `INJURIES` are extracted from the data set and sorted.


```r
nws <- group_by(nws, EVTYPE)
summary <- summarize(nws, FATALITIES = sum(FATALITIES), INJURIES = sum(INJURIES))
arrange(summary, desc(FATALITIES), desc(INJURIES))
```

```
## # A tibble: 985 x 3
##    EVTYPE         FATALITIES INJURIES
##    <fct>               <dbl>    <dbl>
##  1 TORNADO              5633    91346
##  2 EXCESSIVE HEAT       1903     6525
##  3 FLASH FLOOD           978     1777
##  4 HEAT                  937     2100
##  5 LIGHTNING             816     5230
##  6 TSTM WIND             504     6957
##  7 FLOOD                 470     6789
##  8 RIP CURRENT           368      232
##  9 HIGH WIND             248     1137
## 10 AVALANCHE             224      170
## # ... with 975 more rows
```
…
nws$cropdmg <- cropdmg
```

Adding both the damages together to create total damage in variable `totaldmg`.


```r
nws <- mutate(nws, totaldmg = propertydmg + cropdmg)
nws <- arrange(nws, desc(totaldmg))
summary <- summarize(nws, TOTALDMG = sum(totaldmg))
arrange(summary, desc(TOTALDMG))
```

```
## # A tibble: 985 x 2
##    EVTYPE                 TOTALDMG
##    <fct>                     <dbl>
##  1 FLOOD             150319678257 
##  2 HURRICANE/TYPHOON  71913712800 
##  3 TORNADO            57352114049.
##  4 STORM SURGE        43323541000 
##  5 HAIL               18758221521.
##  6 FLASH FLOOD        17562129167.
##  7 DROUGHT            15018672000 
##  8 HURRICANE          14610229010 
##  9 RIVER FLOOD        10148404500 
## 10 ICE STORM           8967041360 
## # ... with 975 more rows
```
…
